…
### Retrieve Conversations

This will retrieve the last 20 messages from each channel

``` r

# question_channels <- setNames(question_channels, question_channels)

convos <- purrr::map_dfr(
  question_channels, ~threads::get_conversations(channel = .x, limit = 20)
) 
  
convos
#> # A tibble: 160 x 33
#>    channel type  text  user  ts    team  attachments blocks thread_ts
#>    <chr>   <chr> <chr> <chr> <chr> <chr> <list>      <list> <chr>    
#>  1 1_expl~ mess~ "I m~ UL5J~ 1577~ T6UC~ <list [1]>  <list~ 15771507~
#>  2 1_expl~ mess~ "I h~ U8LJ~ 1576~ <NA>  <???>       <list~ 15769154~
#>  3 1_expl~ mess~ "Doe~ UQWC~ 1576~ T6UC~ <???>       <list~ 15767605~
#>  4 1_expl~ mess~ "Can~ UKRF~ 1576~ <NA>  <???>       <???>  15766003~
#>  5 1_expl~ mess~ "I h~ U8LJ~ 1576~ T6UC~ <???>       <list~ 15764933~
#>  6 1_expl~ mess~ "I a~ U8LJ~ 1576~ <NA>  <???>       <list~ 15764162~
#>  7 1_expl~ mess~ "Any~ U8LJ~ 1576~ T6UC~ <???>       <list~ <NA>     
#>  8 1_expl~ mess~ "Hi ~ UNEL~ 1576~ T6UC~ <???>       <list~ <NA>     
#>  9 1_expl~ mess~ "<@U~ U8LJ~ 1576~ <NA>  <???>       <list~ 15692836~
#> 10 1_expl~ mess~ "Hey~ UL5J~ 1576~ T6UC~ <???>       <list~ 15761076~
#> # ... with 150 more rows, and 24 more variables: reply_count <int>,
#> #   reply_users_count <int>, latest_reply <chr>, reply_users <list>,
#> #   replies <list>, subscribed <lgl>, files <list>, upload <lgl>,
#> #   edited <list>, client_msg_id <chr>, reactions <list>, display_as_bot <lgl>,
#> #   parent_user_id <chr>, subtype <chr>, root <list>, hidden <lgl>,
#> #   last_read <chr>, username <chr>, icons <list>, bot_id <chr>,
#> #   old_name <chr>, name <chr>, bot_link <chr>, inviter <chr>
```
…
